<?xml version="1.0" standalone="no"?>
<!DOCTYPE svg PUBLIC "-//W3C//DTD SVG 1.1//EN" "http://www.w3.org/Graphics/SVG/1.1/DTD/svg11.dtd">
<svg xmlns="http://www.w3.org/2000/svg">
<metadata>Generated by Fontastic.me</metadata>
<defs>
<font id="bambu" horiz-adv-x="512">
<font-face font-family="bambu" units-per-em="512" ascent="480" descent="-32"/>
<missing-glyph horiz-adv-x="512" />

<glyph glyph-name="facebook-logo" unicode="&#97;" d="M384 512l-66 0c-75 0-123-50-123-126l0-58-67 0c-6 0-10-5-10-11l0-84c0-6 4-11 10-11l67 0 0-212c0-6 5-11 10-11l88 0c5 0 10 5 10 11l0 212 78 0c6 0 11 5 11 11l0 84c0 3-1 6-3 8-2 2-5 3-8 3l-78 0 0 49c0 24 6 36 37 36l44 0c6 0 11 4 11 10l0 78c0 6-5 11-11 11z"/>
<glyph glyph-name="instagram-logo" unicode="&#98;" d="M394 369c0-14-11-25-25-25-14 0-25 11-25 25 0 14 11 25 25 25 14 0 25-11 25-25z m72-26c-1 23-5 38-10 51-5 14-13 26-24 38-12 11-24 19-38 24-13 5-28 9-51 10-22 1-29 1-87 1-58 0-65 0-87-1-23-1-38-5-51-10-14-5-26-13-38-24-11-12-19-24-24-38-5-13-9-28-10-51-1-22-1-29-1-87 0-57 0-65 1-87 1-23 5-38 10-51 5-14 13-26 24-38 12-11 24-19 38-24 13-5 28-9 51-10 22-1 29-1 87-1 58 0 65 0 87 1 23 1 38 5 51 10 14 5 26 13 38 24 11 12 19 24 24 38 5 13 9 28 10 51 1 22 1 29 1 87 0 57 0 65-1 87z m-38-172c-1-21-5-32-8-40-3-10-8-16-15-24-8-7-14-12-24-15-8-3-19-7-40-8-22-1-29-1-85-1-56 0-63 0-85 1-21 1-32 5-40 8-10 3-16 8-24 15-7 8-12 14-15 24-3 8-7 19-8 40-1 22-1 29-1 85 0 56 0 63 1 85 1 21 5 32 8 40 3 10 8 16 15 24 8 7 14 12 24 15 8 3 19 7 40 8 22 1 29 1 85 1 56 0 63 0 85-1 21-1 32-5 40-8 10-3 16-8 24-15 7-8 12-14 15-24 3-8 7-19 8-40 1-22 1-29 1-85 0-56 0-63-1-85z m-172 193c-60 0-108-48-108-108 0-60 48-108 108-108 60 0 108 48 108 108 0 60-48 108-108 108z m0-178c-39 0-70 31-70 70 0 39 31 70 70 70 39 0 70-31 70-70 0-39-31-70-70-70z"/>
<glyph glyph-name="up-open-big" unicode="&#99;" d="M446 143c0 0-190 184-190 184 0 0-189-184-189-184-9-7-18-7-26 0-8 9-8 17 0 26 0 0 203 200 203 200 9 9 17 9 24 0 0 0 203-200 203-200 8-9 8-17 0-26-9-7-17-7-25 0"/>
<glyph glyph-name="right-open-big" unicode="&#100;" d="M144 67c0 0 183 189 183 189 0 0-183 190-183 190-9 9-9 18 0 25 8 9 17 9 24 0 0 0 201-202 201-202 8-9 8-17 0-25 0 0-201-202-201-202-7-9-16-9-24 0-9 7-9 16 0 25"/>
<glyph glyph-name="left-open-big" unicode="&#101;" d="M368 67c9-9 9-18 0-25-8-9-17-9-24 0 0 0-201 202-201 202-8 8-8 16 0 25 0 0 201 202 201 202 7 9 16 9 24 0 9-7 9-16 0-25 0 0-183-190-183-190 0 0 183-189 183-189"/>
<glyph glyph-name="down-open-big" unicode="&#102;" d="M67 369c0 0 189-183 189-183 0 0 190 183 190 183 8 9 16 9 25 0 9-8 9-16 0-25 0 0-203-201-203-201-7-7-15-7-24 0 0 0-203 201-203 201-9 9-9 17 0 25 8 8 17 8 26 0"/>
<glyph glyph-name="bars" unicode="&#103;" d="M475 128l0-37c0-5-1-9-5-12-4-4-8-6-13-6l-402 0c-5 0-9 2-13 6-4 3-5 7-5 12l0 37c0 5 1 9 5 13 4 3 8 5 13 5l402 0c5 0 9-2 13-5 4-4 5-8 5-13z m0 146l0-36c0-5-1-10-5-13-4-4-8-6-13-6l-402 0c-5 0-9 2-13 6-4 3-5 8-5 13l0 36c0 5 1 10 5 13 4 4 8 6 13 6l402 0c5 0 9-2 13-6 4-3 5-8 5-13z m0 147l0-37c0-5-1-9-5-13-4-3-8-5-13-5l-402 0c-5 0-9 2-13 5-4 4-5 8-5 13l0 37c0 5 1 9 5 12 4 4 8 6 13 6l402 0c5 0 9-2 13-6 4-3 5-7 5-12z"/>
<glyph glyph-name="linkedin-logo" unicode="&#104;" d="M136 333l0-283-94 0 0 283z m6 88c0-14-4-26-14-35-10-9-23-14-39-14l0 0c-16 0-29 5-38 14-10 9-14 21-14 35 0 14 4 26 14 35 10 9 23 14 39 14 16 0 28-5 38-14 9-9 14-21 14-35z m333-208l0-163-94 0 0 152c0 20-3 35-11 47-8 11-20 17-36 17-12 0-22-4-30-10-9-7-15-15-19-25-2-5-3-13-3-23l0-158-94 0c1 76 1 138 1 185 0 47 0 76 0 85l-1 13 94 0 0-41 0 0c4 6 7 12 11 16 4 5 10 10 17 15 6 5 15 10 24 13 10 3 21 4 33 4 33 0 59-11 79-32 20-22 29-54 29-95z"/>
<glyph glyph-name="twitter-logo" unicode="&#105;" d="M481 395c-13-18-28-34-46-47 0-3 0-7 0-12 0-25-3-50-11-74-7-25-18-49-33-71-14-23-32-43-52-61-21-17-45-31-74-41-29-11-60-16-92-16-52 0-99 14-142 42 7-1 14-2 22-2 43 0 81 14 115 40-20 0-38 6-54 18-16 12-27 27-33 46 7-1 13-2 18-2 8 0 16 1 24 4-21 4-39 15-53 31-14 17-21 37-21 59l0 1c13-7 27-11 42-11-13 8-23 19-30 32-8 14-11 29-11 44 0 17 4 33 12 47 23-28 51-51 84-68 33-17 69-27 107-29-2 8-3 15-3 22 0 25 9 47 27 65 18 18 40 27 66 27 26 0 49-10 67-29 21 4 40 11 59 22-7-22-21-39-41-51 18 2 35 7 53 14z"/>
<glyph glyph-name="google-logo" unicode="&#106;" d="M498 279l-231 0 0-70 164 0c-8-97-88-139-164-139-101 3-181 85-181 186 0 101 81 184 181 186 46 0 91-18 124-50l48 50c-47 46-109 71-174 70-92 0-177-50-222-129-45-80-45-178 2-257 47-79 132-127 224-126 134 0 233 94 233 233 0 15-1 31-4 46z"/>
<glyph glyph-name="pinterest-logo" unicode="&#107;" d="M73 341c0 21 4 40 11 59 7 18 17 34 29 47 13 14 27 25 44 35 16 10 34 18 53 23 19 5 38 7 57 7 31 0 59-6 84-19 26-13 47-31 64-55 16-24 24-52 24-82 0-19-2-36-6-54-3-18-9-34-17-51-8-16-17-30-28-42-12-13-25-22-42-30-16-7-34-11-54-11-13 0-26 3-38 9-13 7-22 15-28 26-2-8-4-19-8-33-3-14-5-23-6-27-1-4-3-11-6-20-3-9-6-16-8-20-2-4-5-10-9-18-4-8-8-15-13-22-5-7-11-15-18-25l-4-1-2 2c-3 30-5 48-5 54 0 18 2 37 7 59 4 22 10 49 19 82 8 33 13 53 14 58-6 13-9 29-9 49 0 15 5 30 15 44 10 14 23 21 38 21 11 0 21-4 27-12 6-7 10-17 10-29 0-12-4-31-13-54-8-24-12-42-12-54 0-12 4-22 12-30 9-8 19-12 32-12 10 0 20 3 29 8 9 4 16 11 22 19 6 8 11 17 16 27 5 10 8 21 11 32 3 11 4 21 6 31 1 10 2 20 2 29 0 33-11 58-32 77-21 18-48 27-81 27-38 0-70-12-96-37-25-24-38-56-38-93 0-9 1-17 4-25 2-8 5-14 7-18 3-5 6-9 8-13 2-4 4-7 4-9 0-5-2-12-5-21-3-8-6-13-10-13-1 0-2 1-5 1-10 3-18 8-26 16-8 8-13 17-17 27-5 10-8 21-10 31-2 10-3 21-3 30z"/>
<glyph glyph-name="paperclip" unicode="&#108;" d="M456 116c0-22-8-41-23-56-15-15-33-22-56-22-25 0-48 9-67 28l-222 222c-21 22-32 48-32 77 0 31 10 56 31 78 21 21 47 31 77 31 30 0 56-10 78-32l173-173c2-2 3-4 3-6 0-3-3-8-9-14-6-6-10-8-13-8-2 0-5 1-7 2l-173 174c-15 15-32 22-51 22-21 0-38-7-52-22-13-14-20-31-20-51 0-20 7-38 21-52l222-222c12-12 26-18 41-18 13 0 23 4 31 12 8 8 12 18 12 30 0 16-6 30-18 42l-166 166c-5 4-11 7-17 7-6 0-11-2-14-6-4-3-6-8-6-14 0-6 3-11 8-16l117-118c2-1 3-4 3-6 0-3-3-7-9-13-6-6-11-9-14-9-2 0-4 1-6 3l-117 117c-12 11-18 26-18 42 0 16 5 29 16 40 11 11 24 16 40 16 17 0 31-6 42-18l166-166c19-18 29-41 29-67z"/>
<glyph glyph-name="check" unicode="&#109;" d="M106 237l101-96 200 187-39 42-161-150-61 59z m-56 225l0-413 414 0 0 413z m385-384l-356 0 0 356 356 0z"/>
<glyph glyph-name="person" unicode="&#110;" d="M448 64c0 0 0 26-2 40-2 11-17 25-81 49-63 23-60 12-60 55 0 27 15 11 24 64 3 21 6 7 13 40 4 17-2 19-1 27 0 8 1 16 3 33 1 21-18 76-88 76-70 0-89-55-87-76 1-17 2-25 3-33 0-8-6-10-2-27 7-33 10-19 14-40 9-53 23-37 23-64 0-43 4-32-60-55-64-24-79-38-81-49-2-14-2-40-2-40z"/>
<glyph glyph-name="language" unicode="&#111;" d="M505 233c11-27 9-57-5-90-13-32-36-59-68-81-4 0-6 0-6 1-1 0-4 4-9 9-4 6-7 9-8 10 0 2 0 4 1 5 30 21 49 47 60 78 11 31 9 57-6 76-5-13-12-26-20-39-7-13-17-27-30-41-12-14-27-26-44-33-17-8-35-11-54-8-18 2-32 9-43 21-11 12-16 28-16 47 0 29 10 54 30 76 18 17 37 28 59 34 0 0-1 51-1 51-48-8-73-12-75-12-2-1-4 0-5 2 0 1-1 5-3 15-1 9-2 14-2 16-1 0-1 1 0 2 1 0 3 1 4 1 0 0 80 14 80 14 0 37-1 57-1 58 0 3 1 4 4 4 15 0 24 1 26 1 4 0 6-1 6-4 0 0 0-53 0-53 53 8 81 11 83 11 3 2 5 1 6-3 0 0 0-4 2-12 1-7 2-11 2-12 1-4 0-6-2-6 0 0-90-16-90-16 0 0 0-52 0-52 0 0 6 0 6 0 29 0 54-6 75-18 22-13 36-30 44-52m-189-81c10-2 20-1 32 3 0 0-2 109-2 109-12-4-22-11-31-20-15-15-22-34-22-56 0-22 7-34 23-36m63 14c9 8 19 20 29 35 10 15 18 28 23 40 5 12 6 19 4 21-13 6-29 9-49 9-1 0-2 0-3 0-2-1-3-1-3-1 0 0-1-104-1-104m-230 195c4-9 13-37 27-84 15-47 29-91 43-134 14-42 20-63 20-64 0-1 0-2-2-2 0 0-44 0-44 0-2 0-3 1-3 2 0 0-25 85-25 85 0 0-90 0-90 0-17-56-25-84-26-85 0-1-1-2-3-2 0 0-44 0-44 0-1 0-2 1-2 2 3 6 33 100 90 282 1 3 2 4 5 4 0 0 49 0 49 0 4 0 5-1 5-4m-66-161c0 0 74 0 74 0 0 0-37 135-37 135 0 0-37-135-37-135"/>
<glyph glyph-name="globe" unicode="&#112;" d="M256 475c40 0 77-9 110-29 34-20 60-46 80-80 20-33 29-70 29-110 0-40-9-77-29-110-20-34-46-60-80-80-33-20-70-29-110-29-40 0-77 9-110 29-34 20-60 46-80 80-20 33-29 70-29 110 0 40 9 77 29 110 20 34 46 60 80 80 33 20 70 29 110 29z m78-148c0-1-1-2-2-3-2-2-3-3-4-3 0 0 1 1 1 2 0 1 1 2 1 3 1 1 1 2 1 2 2 1 4 2 7 4 2 1 7 2 15 3 6 2 11 1 14-3 0 1 1 2 3 4 2 2 3 3 4 3 1 1 2 1 4 2 3 0 4 1 5 2l0 6c-2 0-4 1-5 2-1 2-2 4-2 6 0 0 0-1-1-2 0 1-1 2-2 2-1 0-2 0-3 0-1-1-2-1-3 0-1 0-3 1-4 2-1 1-2 2-2 4-1 3-1 4-1 5-1 1-2 2-3 3-1 1-2 2-3 3 0 0 0 1 0 1-1 1-1 2-1 2-1 1-1 1-1 2-1 0-1 0-2 0-1 0-1 0-2-1-1-1-1-2-2-3-1-1-1-1-1-1-1 0-2 0-2 0-1 0-1 0-1 0-1 0-1-1-2-1 0 0-1-1-1-1-1 0-2-1-3-1-1 0-1 0-2 0 3 1 3 2 0 3-2 0-4 1-5 1 2 0 3 1 2 3 0 2-1 3-2 4l1 0c0 1-1 2-2 2-2 1-3 2-5 3-2 1-3 1-4 2-1 1-5 1-10 2-5 1-8 1-9 0-1-1-1-2-1-3 0 0 0-2 1-4 1-1 1-3 1-3 0-1 0-3-2-4-1-1-2-2-2-3 0-2 2-3 4-5 3-1 4-3 3-6 0-1-2-3-4-4-3-2-4-3-5-4-1-1-1-3 0-5 0-2 1-4 3-5 0 0 0-1 0-1 0 0 0-1-1-1 0-1-1-1-1-1-1-1-2-1-2-1l-1-1c-2-1-4 0-6 2-2 2-3 4-4 7-1 5-3 8-4 9-5 1-8 1-9-1-1 3-5 5-11 8-5 2-11 2-17 1 1 0 1 2 0 4-1 3-3 4-5 4 0 1 1 3 1 5 0 2 0 3 0 4 1 2 2 4 3 6 1 0 1 1 2 3 2 1 2 2 3 3 1 2 1 2 2 2 6-1 11 0 14 3 1 1 2 3 3 5 1 2 2 4 3 5 2 1 3 2 4 2 1-1 2-1 4-2 2-1 3-1 4-1 3-1 5 0 5 3 0 2-1 4-2 5 2 0 2 2 1 5-1 2-2 2-3 3-2 1-5 0-7-2-2 0-2-1 0-2 0 0-1-1-3-3-1-2-3-4-4-5-2-1-3-1-5 2 0 0-1 1-1 3-1 3-2 4-3 4-2 0-3-1-5-4 1 2 0 3-3 4-3 2-5 2-7 3 4 2 3 4-2 7-1 1-3 2-6 2-2 0-4 0-5-1-1-2-2-3-2-4 0-1 0-1 1-2 1-1 2-1 3-2 1 0 2 0 4-1 1 0 2 0 2-1 3-1 4-3 2-4 0 0-1 0-2-1-1 0-2 0-3-1-1 0-2-1-2-1-1-1-1-2 0-4 1-2 0-3-1-4-1 1-1 3-2 5-1 2-2 4-2 5 1-2-1-3-7-2l-3 0c-1 0-2 0-5 0-2-1-4-1-6-1-1 1-2 1-3 3-1 1-1 3 0 5 0 1 0 1 1 1-1 1-2 1-3 3-2 1-3 2-3 2-9-3-18-7-27-12 1 0 2 0 3 1 1 0 2 1 4 2 2 0 2 1 3 1 6 3 10 3 12 2l1 2c3-3 5-6 6-8-1 1-4 1-9 1-3-1-5-3-6-4 1-2 2-4 2-5-1 1-2 2-4 3-1 1-3 2-4 3-1 1-3 1-4 2-3 0-5-1-6-1-28-15-51-36-68-63 2-1 3-2 4-2 1-1 1-1 1-3 0-2 1-3 1-3 0-1 1 0 3 1 2-2 2-4 1-6 0 0 5-2 13-7 3-4 5-6 6-6 0-3-1-4-3-6 0 1-1 2-3 3-1 1-2 2-2 1-1-1-1-3 0-5 1-3 2-4 3-4-1 0-2-1-3-4 0-3-1-7-1-10 0-4 0-6 0-7l1 0c-1-3 0-6 1-10 2-5 4-6 6-6-2 0 0-5 6-12 1-2 2-3 2-3 1 0 2-1 4-2 2-1 3-2 4-3 1-1 2-2 3-3 1-1 2-3 3-6 1-3 2-6 4-7-1-1 0-3 3-6 2-2 3-4 3-6-1 0-1 0-1 0 0-1-1-1-1-1 1-1 2-2 5-4 2-1 3-2 4-3 0-1 0-2 1-3 0-2 0-3 0-3 1-1 2-1 3-1 0 4-2 10-7 18-3 4-5 7-5 8-1 1-1 2-2 4 0 2 0 4-1 5 1 0 1-1 2-1 1 0 1 0 2-1 1 0 2-1 2-1 1 0 1-1 1-1-1-1 0-3 1-5 1-2 2-4 3-5 1-2 3-3 5-6 2-2 3-3 3-3 1-1 3-3 4-6 2-2 2-4 0-4 2 0 4-1 6-3 2-1 4-3 5-5 1-2 2-4 2-8 1-3 1-5 2-7 0-1 1-2 2-3 1-2 2-3 4-3l4-2 4-2c1-1 3-2 5-3 3-2 5-3 6-4 2 0 4-1 5-1 1 0 2 0 4 1 2 0 3 1 4 1 3 0 5-1 8-4 3-4 5-6 6-6 7-4 12-5 16-4-1 0 0 0 0-2 0-1 1-2 2-4 1-2 2-3 3-4 1-1 1-2 1-3 1-1 3-2 6-4 2-2 4-3 5-4 1 0 2 1 2 2-1-1 0-3 2-5 2-3 3-4 5-3 3 0 4 3 4 9-6-3-11-1-14 5 0 0 0 1-1 2 0 0-1 1-1 2 0 1-1 2-1 2 0 1 0 2 0 3 0 0 1 0 2 0 1 0 2 1 3 1 0 1 0 2-1 4-1 2-1 3-1 4 0 1-1 3-3 5-2 3-3 4-4 5-1-2-2-3-4-3-2 1-4 1-5 3 0 0 0-1 0-2-1 0-1-1-1-1-2 0-4 0-4 0 0 0 0 2 1 5 0 3 0 5 1 6 0 1 0 2 1 4 1 1 2 3 2 4 1 1 1 2 2 3 0 2-1 2-2 3-1 1-2 1-5 1-3 0-6-2-7-6 0 0-1-1-1-3 0-1-1-2-1-3-1-1-2-2-3-2-1-1-4-1-7-1-3 0-5 1-7 2-2 1-4 4-6 8-2 4-3 8-3 11 0 1 0 4 1 7 0 3 1 6 1 7 0 2-1 4-2 7 1 1 2 2 3 3 1 1 2 2 3 3 0 0 0 0 1 0 0 1 1 1 1 0 1 0 1 0 1 1 1 0 1 1 1 2 0 0 0 0-1 0-1 1-1 1-1 1 1 0 4 0 8 1 4 1 7 0 8-1 3-2 5-2 6 1 0 0 0 1-1 3 0 1 0 2 0 3 1-5 4-6 9-2 0-1 2-1 4-2 2 0 4 0 5-1 1 0 1-1 2-2 1 0 1-1 2-1 0 0 0 0 1 0 1 1 1 1 2 2 2-3 3-5 4-7 2-7 4-12 5-12 2-1 3-1 3-1 1 0 2 1 2 3 0 1 0 3 0 4 0 1-1 2-1 3l0 3 0 5 0 2c-3 1-5 2-6 4 0 1 0 3 1 5 1 2 2 3 4 5 0 0 1 1 2 1 2 1 3 1 5 2 1 1 3 2 3 2 4 4 6 7 5 10 1 0 2 1 3 3 0 0-1 0-2 1 0 0-1 1-2 1 0 1-1 1-1 1 2 1 2 2 1 4 1 1 1 2 2 3 0 2 1 3 2 3 2-2 4-2 6 0 1 1 1 3 0 4 1 2 3 3 6 3 3 1 5 2 5 3 2 0 2 0 3 1 0 0 0 1 0 3 0 2 0 3 1 3 0 1 2 2 4 3 2 1 3 1 4 1l5 4c0 0 0 1 0 1 3-1 6 0 8 3 2 2 2 4-1 6 0 1 0 2-1 2-1 1-3 1-4 2 0 0 1 0 3 0 1 0 2 0 3 0 3 2 2 4-2 5-3 1-7 0-12-3z m-46-251c39 7 72 25 100 54-1 1-2 1-4 1-1 1-3 1-3 1-4 2-6 2-7 3 0 1 0 2-1 3 0 1-1 2-2 3-1 0-2 1-4 2-1 1-2 2-3 2 0 1-1 1-2 2-1 1-1 1-2 1 0 1-1 1-2 2-1 0-2 0-2 0-1 0-2 0-3 0l-1 0c-1 0-1-1-2-1 0 0-1-1-1-1-1 0-1 0-1-1 0 0 0 0 0 0-4 3-8 5-11 6-1 0-2 1-3 1-1 1-2 2-3 2-1 1-2 1-3 1-1 0-2-1-3-2-1-1-1-3-2-4 0-2 0-4 0-4-1 1-1 2 0 5 1 2 1 4 0 5 0 1-1 2-3 1-1 0-2 0-3-1-1 0-2-1-3-2-2-1-2-2-3-2 0 0-1-1-2-2-2-1-2-1-3-2 0-1-1-2-1-3-1-2-1-3-2-3 0 0-1 1-3 1-2 1-3 1-3 2 1-2 1-5 1-10 1-5 1-8 2-11 1-6 0-10-4-14-5-4-8-8-8-11-1-4 0-7 3-7 0-2 0-4-2-6-1-3-2-5-2-6 0-2 0-3 1-5z"/>
</font></defs></svg>
